Aggregate od pairs they become non-directional — od_oneway • stplanr
…
    Examples

flow_oneway <- od_oneway(flow, attrib = 3)
nrow(flow_oneway) < nrow(flow) # result has fewer rows
#> [1] TRUE
sum(flow$All) == sum(flow_oneway$All) # but the same total flow
#> [1] TRUE
# using names instead of index for attribute
od_oneway(flow, attrib = "All")
#> # A tibble: 28 x 3
#>    Area.of.residence Area.of.workplace   All
#>    <chr>             <chr>             <int>
#>  1 E02002361         E02002361           109
#>  2 E02002361         E02002363            68
#>  3 E02002361         E02002367            15
#>  4 E02002361         E02002371            64
#>  5 E02002361         E02002377            55
#>  6 E02002361         E02002382            15
#>  7 E02002361         E02002393           108
#>  8 E02002363         E02002363           183
#>  9 E02002363         E02002367            95
#> 10 E02002363         E02002371           182
#> # … with 18 more rows
…
