Aggregate ods so they become non-directional — onewayid • stplanr
…
    Examples

data(flow)
flow_oneway <- onewayid(flow, attrib = 3)
nrow(flow_oneway) < nrow(flow) # result has fewer rows
#> [1] TRUE
sum(flow$All) == sum(flow_oneway$All) # but the same total flow
#> [1] TRUE
# using names instead of index for attribute
onewayid(flow, attrib = "All")
#> # A tibble: 28 x 4
#>    Area.of.residence Area.of.workplace   All is_two_way
#>    <chr>             <chr>             <int> <lgl>     
#>  1 E02002361         E02002361           109 FALSE     
#>  2 E02002361         E02002363            68 TRUE      
#>  3 E02002361         E02002367            15 TRUE      
#>  4 E02002361         E02002371            64 TRUE      
#>  5 E02002361         E02002377            55 TRUE      
#>  6 E02002361         E02002382            15 TRUE      
#>  7 E02002361         E02002393           108 TRUE      
#>  8 E02002363         E02002363           183 FALSE     
#>  9 E02002363         E02002367            95 TRUE      
#> 10 E02002363         E02002371           182 TRUE      
#> # … with 18 more rows
…
onewayid(flowlines_sf, "all")
#> Simple feature collection with 28 features and 3 fields
#> Active geometry column: geometry (with 7 geometries empty)
#> geometry type:  GEOMETRY
#> dimension:      XY
#> bbox:           xmin: -1.550807 ymin: 53.8041 xmax: -1.511861 ymax: 53.82887
#> epsg (SRID):    4326
#> proj4string:    +proj=longlat +datum=WGS84 +no_defs
#> # A tibble: 28 x 6
#>    Area.of.residen… Area.of.workpla…                  geometry
#>    <chr>            <chr>                       <GEOMETRY [°]>
#>  1 E02002361        E02002361         GEOMETRYCOLLECTION EMPTY
#>  2 E02002361        E02002363        LINESTRING (-1.516734 53…
#>  3 E02002361        E02002367        LINESTRING (-1.516734 53…
#>  4 E02002361        E02002371        LINESTRING (-1.516734 53…
#>  5 E02002361        E02002377        LINESTRING (-1.516734 53…
#>  6 E02002361        E02002382        LINESTRING (-1.516734 53…
#>  7 E02002361        E02002393        LINESTRING (-1.516734 53…
#>  8 E02002363        E02002363         GEOMETRYCOLLECTION EMPTY
#>  9 E02002363        E02002367        LINESTRING (-1.535617 53…
#> 10 E02002363        E02002371        LINESTRING (-1.535617 53…
#> # … with 18 more rows, and 3 more variables: geometry1 <GEOMETRY [°]>,
#> #   is_two_way <lgl>, geometry2 <GEOMETRY [°]>
…
