Aggregate ods so they become non-directional — onewayid • stplanr
…
    Examples

data(flow)
flow_oneway = onewayid(flow, attrib = 3)
nrow(flow_oneway) < nrow(flow) # result has fewer rows
#> [1] TRUE
sum(flow$All) == sum(flow_oneway$All) # but the same total flow
#> [1] TRUE
# using names instead of index for attribute
onewayid(flow, attrib = "All")
#> # A tibble: 28 x 4
#>    Area.of.residence Area.of.workplace   All is_two_way
#>                <chr>             <chr> <int>      <lgl>
#>  1         E02002361         E02002361   109      FALSE
#>  2         E02002361         E02002363    68       TRUE
#>  3         E02002361         E02002367    15       TRUE
#>  4         E02002361         E02002371    64       TRUE
#>  5         E02002361         E02002377    55       TRUE
#>  6         E02002361         E02002382    15       TRUE
#>  7         E02002361         E02002393   108       TRUE
#>  8         E02002363         E02002363   183      FALSE
#>  9         E02002363         E02002367    95       TRUE
#> 10         E02002363         E02002371   182       TRUE
#> # ... with 18 more rows
…
# With spaces in id names
names(flow)[1] = "Area of residence"
onewayid(flow, attrib = 3)
#> # A tibble: 28 x 4
#>    `Area of residence` Area.of.workplace   All is_two_way
#>                  <chr>             <chr> <int>      <lgl>
#>  1           E02002361         E02002361   109      FALSE
#>  2           E02002361         E02002363    68       TRUE
#>  3           E02002361         E02002367    15       TRUE
#>  4           E02002361         E02002371    64       TRUE
#>  5           E02002361         E02002377    55       TRUE
#>  6           E02002361         E02002382    15       TRUE
#>  7           E02002361         E02002393   108       TRUE
#>  8           E02002363         E02002363   183      FALSE
#>  9           E02002363         E02002367    95       TRUE
#> 10           E02002363         E02002371   182       TRUE
#> # ... with 18 more rows
…
