Origin-destination data in R: examples with stplanr • stplanr
…
Data in this form usually has at least one other colum, representing the amount of travel between the zones. Additional columns represent addition attributes, e.g. a breakdown of flow by time, mode of travel, type of person, or trip purpose. As shown in the output of printing the sample dataset, the dataset we have downloaded contains column names representing mode of travel (car, bicycle etc):

names(od_data_sample)
#>  [1] "geo_code1"     "geo_code2"     "all"           "from_home"    
#>  [5] "light_rail"    "train"         "bus"           "taxi"         
#>  [9] "motorbike"     "car_driver"    "car_passenger" "bicycle"      
#> [13] "foot"          "other"         "geo_name1"     "geo_name2"    
#> [17] "la_1"          "la_2"

Each ‘mode’ column contains an integer, while additional columns contain characters, as demonstrated by printing the data frame:

od_data_sample
#> # A tibble: 64 x 18
#>    geo_code1 geo_code2   all from_home light_rail train   bus  taxi
#>    <chr>     <chr>     <dbl>     <dbl>      <dbl> <dbl> <dbl> <dbl>
#>  1 E02002361 E02002361   109         0          0     0     4     2
#>  2 E02002361 E02002363    38         0          0     1     4     1
#>  3 E02002361 E02002367    10         0          0     0     1     0
#>  4 E02002361 E02002371    44         0          0     0     2     2
#>  5 E02002361 E02002377    34         0          0     0     0     1
#>  6 E02002361 E02002382     7         0          0     0     1     0
#>  7 E02002361 E02002384    53         0          0     1    10     1
#>  8 E02002361 E02002393    94         0          0     0    17     1
#>  9 E02002363 E02002361    30         0          0     0     0     1
#> 10 E02002363 E02002363   183         0          0     2    13     3
#> # … with 54 more rows, and 10 more variables: motorbike <dbl>,
#> #   car_driver <dbl>, car_passenger <dbl>, bicycle <dbl>, foot <dbl>,
#> #   other <dbl>, geo_name1 <chr>, geo_name2 <chr>, la_1 <chr>, la_2 <chr>
…
